"0","df_filtered = df_merged"
"0","df_filtered = df_filtered %>% "
"0","  left_join(us_stats_clean) %>% "
"0","  filter(!is.na(population)) "
"0","df_filtered = df_filtered %>% "
"0","  group_by(state, county) %>% "
"0","  add_tally() %>% "
"0","  rename(""county_totals"" = n) %>% "
"0","  arrange(desc(county_totals)) %>% "
"0","  mutate(county_rank = dense_rank()) %>% "
"0","  ungroup() "
