"0","# Clean dataset (drop nulls)"
"0","brutality_clean = brutality_cases"
"0","# Remove columns with more than 50% NA"
"0","brutality_clean = brutality_clean[, which(colMeans(!is.na(brutality_clean)) > 0.5)]"
"0","# Change columns to snake case"
"0","snake_case <- function(x) {"
"0","  colnames(x) <- gsub("" "", ""_"", colnames(x));x"
"0","  colnames(x) <-tolower(colnames(x))"
"0","}"
"0","colnames(brutality_clean) = snake_case(brutality_clean)"
"0","brutality_clean = brutality_clean %>% "
"0","  rename("
"0","   ""state"" = state_where_the_police_brutality_occurred"
"0","   , ""city"" = city_where_the_police_brutality_occurred"
"0","   , ""date"" = date_of_the_police_brutality"
"0","  ) %>% "
"0","  mutate("
"0","    state_county = paste0(state, ""-"", county)"
"0","  )"
"0","brutality_clean$date = as.Date(brutality_clean$date, ""%m/%d/%Y"")"
