"0","df_plot = df_merged %>% "
"0","  select("
"0","    state, state_pop, state_full, state_pop_millions, state_totals, totals_per_million"
"0","  ) %>% "
"0","  unique() %>% "
"0","  arrange(desc(totals_per_million)) %>% "
"0","  mutate("
"0","    state = reorder(as.factor(state), totals_per_million)"
"0","  ) "
"0","a = df_plot %>% "
"0","  plot_ly("
"0","    y = ~state"
"0","    , x = ~totals_per_million"
"0","    , type = ""bar"""
"0","    , color = paired_better[1]"
"0","    , orientation = ""h"""
"0","    , width = 900"
"0","    , height = 1000"
"0","    , hoverinfo = ""text"""
"0","    , text = ~paste("
"0","      ""State: "", state_full"
"0","      , ""<br>State Population: "", comma(state_pop)"
"0","      , ""<br>Reported Incidents: "", state_totals"
"0","      , ""<br>Incidents per Million Residents: "", comma(totals_per_million)"
"0","    )"
"0","  ) %>% "
"0","  layout("
"0","    xaxis = list(title = ""Reported Incidents per Million State Residents"")"
"0","    , yaxis = list(title = """")"
"0","  )"
"0","b = df_plot %>% "
"0","  plot_ly("
"0","    y = ~state"
"0","    , x = ~state_totals"
"0","    , type = ""bar"""
"0","    , color = paired_better[10]"
"0","    , orientation = ""h"""
"0","    , width = 900"
"0","    , height = 1000"
"0","    , hoverinfo = ""text"""
"0","    , showlegend = FALSE"
"0","    , text = ~paste("
"0","      ""State: "", state_full"
"0","      , ""<br>State Population: "", comma(state_pop)"
"0","      , ""<br>Reported Incidents: "", state_totals"
"0","      , ""<br>Incidents per Million Residents: "", comma(totals_per_million)"
"0","    )"
"0","  ) %>% "
"0","  layout("
"0","    xaxis = list(title = ""Total Reported Incidents"")"
"0","    , yaxis = list(title = """")"
"0","  )"
"0","subplot(a, b, titleX = TRUE)"
